@relation attrs

@attribute fft_coef_0000 numeric
@attribute fft_coef_0001 numeric
@attribute fft_coef_0002 numeric
@attribute fft_coef_0003 numeric
@attribute fft_coef_0004 numeric
@attribute fft_coef_0005 numeric
@attribute fft_coef_0006 numeric
@attribute fft_coef_0007 numeric
@attribute fft_coef_0008 numeric
@attribute fft_coef_0009 numeric
@attribute fft_coef_0010 numeric
@attribute fft_coef_0011 numeric
@attribute fft_coef_0012 numeric
@attribute fft_coef_0013 numeric
@attribute fft_coef_0014 numeric
@attribute fft_coef_0015 numeric
@attribute fft_coef_0016 numeric
@attribute fft_coef_0017 numeric
@attribute fft_coef_0018 numeric
@attribute fft_coef_0019 numeric
@attribute fft_coef_0020 numeric
@attribute fft_coef_0021 numeric
@attribute fft_coef_0022 numeric
@attribute fft_coef_0023 numeric
@attribute fft_coef_0024 numeric
@attribute fft_coef_0025 numeric
@attribute fft_coef_0026 numeric
@attribute fft_coef_0027 numeric
@attribute fft_coef_0028 numeric
@attribute fft_coef_0029 numeric
@attribute fft_coef_0030 numeric
@attribute fft_coef_0031 numeric
@attribute fft_coef_0032 numeric
@attribute fft_coef_0033 numeric
@attribute fft_coef_0034 numeric
@attribute fft_coef_0035 numeric
@attribute fft_coef_0036 numeric
@attribute fft_coef_0037 numeric
@attribute fft_coef_0038 numeric
@attribute fft_coef_0039 numeric
@attribute fft_coef_0040 numeric
@attribute fft_coef_0041 numeric
@attribute fft_coef_0042 numeric
@attribute fft_coef_0043 numeric
@attribute fft_coef_0044 numeric
@attribute fft_coef_0045 numeric
@attribute fft_coef_0046 numeric
@attribute fft_coef_0047 numeric
@attribute fft_coef_0048 numeric
@attribute fft_coef_0049 numeric
@attribute fft_coef_0050 numeric
@attribute fft_coef_0051 numeric
@attribute fft_coef_0052 numeric
@attribute fft_coef_0053 numeric
@attribute fft_coef_0054 numeric
@attribute fft_coef_0055 numeric
@attribute fft_coef_0056 numeric
@attribute fft_coef_0057 numeric
@attribute fft_coef_0058 numeric
@attribute fft_coef_0059 numeric
@attribute fft_coef_0060 numeric
@attribute fft_coef_0061 numeric
@attribute fft_coef_0062 numeric
@attribute fft_coef_0063 numeric
@attribute max numeric
@attribute label {normal,hazard}

@data
420.581062,182.733366,91.71767,94.332289,45.945061,25.147815,48.87362,46.006326,23.679964,25.40506,25.289411,19.518432,10.714034,29.807267,6.374959,22.051274,15.359304,12.44026,12.995356,12.606545,13.976252,7.375408,13.172259,6.207697,6.057629,5.525657,6.626222,6.44838,5.892677,1.83095,2.018203,3.816887,5.415603,3.816887,2.018203,1.83095,5.892677,6.44838,6.626222,5.525657,6.057629,6.207697,13.172259,7.375408,13.976252,12.606545,12.995356,12.44026,15.359304,22.051274,6.374959,29.807267,10.714034,19.518432,25.289411,25.40506,23.679964,46.006326,48.87362,25.147815,45.945061,94.332289,91.71767,182.733366,20.176009,normal
405.513536,108.396509,35.56561,72.335473,14.648086,13.016359,31.956673,43.811725,31.929483,36.870824,14.545878,8.812783,3.478864,14.515678,16.092986,1.924526,0.407739,6.636081,7.753049,1.568528,4.208729,1.373911,1.816339,2.717297,1.595406,3.455787,2.59557,1.876513,2.846435,1.148357,2.698594,1.813789,0.214576,1.813789,2.698594,1.148357,2.846435,1.876513,2.59557,3.455787,1.595406,2.717297,1.816339,1.373911,4.208729,1.568528,7.753049,6.636081,0.407739,1.924526,16.092986,14.515678,3.478864,8.812783,14.545878,36.870824,31.929483,43.811725,31.956673,13.016359,14.648086,72.335473,35.56561,108.396509,13.751431,normal
341.335052,41.948734,14.000603,48.192152,43.485253,30.963508,28.634925,60.822214,4.472288,15.381926,9.588401,14.554535,11.416769,7.546082,9.733887,11.411639,7.458507,2.902245,5.566454,4.699593,2.778791,3.448091,4.417634,3.088611,3.235265,2.677586,2.927046,2.318085,2.903217,1.685923,3.347641,2.027797,3.066253,2.027797,3.347641,1.685923,2.903217,2.318085,2.927046,2.677586,3.235265,3.088611,4.417634,3.448091,2.778791,4.699593,5.566454,2.902245,7.458507,11.411639,9.733887,7.546082,11.416769,14.554535,9.588401,15.381926,4.472288,60.822214,28.634925,30.963508,43.485253,48.192152,14.000603,41.948734,11.882784,normal
466.756772,18.546458,32.260594,91.549308,81.63059,8.466369,13.317705,49.418237,30.829155,15.093895,18.156593,9.672596,10.777336,18.219075,11.593396,6.048079,4.130472,3.315846,2.871486,0.6475,4.32615,2.247065,2.463139,1.197586,1.35054,3.815738,0.431695,1.7675,2.5786,0.590107,2.447011,2.533445,0.960643,2.533445,2.447011,0.590107,2.5786,1.7675,0.431695,3.815738,1.35054,1.197586,2.463139,2.247065,4.32615,0.6475,2.871486,3.315846,4.130472,6.048079,11.593396,18.219075,10.777336,9.672596,18.156593,15.093895,30.829155,49.418237,13.317705,8.466369,81.63059,91.549308,32.260594,18.546458,15.217937,normal
780.410206,37.928476,70.472248,46.530512,150.990491,36.456319,108.134278,39.758794,42.166757,44.866193,34.618909,35.479121,28.823278,2.410186,6.537459,13.346278,2.675762,11.014357,4.88354,8.651642,10.582929,2.319709,8.928765,5.937379,4.789192,1.924745,2.881189,2.932951,3.047555,1.141333,2.114976,3.241607,0.039115,3.241607,2.114976,1.141333,3.047555,2.932951,2.881189,1.924745,4.789192,5.937379,8.928765,2.319709,10.582929,8.651642,4.88354,11.014357,2.675762,13.346278,6.537459,2.410186,28.823278,35.479121,34.618909,44.866193,42.166757,39.758794,108.134278,36.456319,150.990491,46.530512,70.472248,37.928476,23.96445,normal
664.958686,157.912233,97.009137,70.233542,102.680059,43.512816,62.995063,16.570811,62.5576,29.526122,33.092029,28.374767,5.212953,24.899832,17.252029,4.789932,15.9615,25.789759,7.516419,10.707646,15.668068,9.054077,8.508955,8.332438,9.291061,7.68525,6.782002,7.047834,5.948843,4.915571,5.700227,9.272367,4.944035,9.272367,5.700227,4.915571,5.948843,7.047834,6.782002,7.68525,9.291061,8.332438,8.508955,9.054077,15.668068,10.707646,7.516419,25.789759,15.9615,4.789932,17.252029,24.899832,5.212953,28.374767,33.092029,29.526122,62.5576,16.570811,62.995063,43.512816,102.680059,70.233542,97.009137,157.912233,24.451973,normal
1315.066262,149.232689,41.155923,106.769757,89.944973,114.105189,121.917357,43.288374,32.636656,66.226352,16.768386,20.247185,34.175033,20.424169,9.658905,13.584606,9.310664,13.506712,12.303723,6.184676,12.282386,6.842115,4.608075,7.190591,9.054408,6.153055,3.972494,2.859846,4.750789,1.827176,4.058645,3.422855,1.339611,3.422855,4.058645,1.827176,4.750789,2.859846,3.972494,6.153055,9.054408,7.190591,4.608075,6.842115,12.282386,6.184676,12.303723,13.506712,9.310664,13.584606,9.658905,20.424169,34.175033,20.247185,16.768386,66.226352,32.636656,43.288374,121.917357,114.105189,89.944973,106.769757,41.155923,149.232689,41.878402,normal
627.99829,45.779094,52.373528,106.216013,42.819086,44.83049,19.817458,83.139106,28.447885,54.643542,75.78592,30.134179,23.955876,18.914706,23.928074,40.11618,27.930214,24.877668,17.056937,17.729059,15.869682,13.953133,21.913879,15.083297,12.83185,10.630052,9.182881,13.733943,13.494716,13.819458,13.580798,9.150794,8.943841,9.150794,13.580798,13.819458,13.494716,13.733943,9.182881,10.630052,12.83185,15.083297,21.913879,13.953133,15.869682,17.729059,17.056937,24.877668,27.930214,40.11618,23.928074,18.914706,23.955876,30.134179,75.78592,54.643542,28.447885,83.139106,19.817458,44.83049,42.819086,106.216013,52.373528,45.779094,26.010717,normal
733.826842,85.886078,19.69116,69.199339,71.499604,29.614931,23.248965,37.951467,106.073844,55.369253,47.994192,44.590011,23.613417,25.910523,17.167932,12.743614,26.764195,10.197087,21.418415,21.39936,9.177097,8.698091,11.926289,10.068428,6.124419,4.960472,5.918583,6.493667,9.243829,2.036123,4.016416,3.314852,4.90056,3.314852,4.016416,2.036123,9.243829,6.493667,5.918583,4.960472,6.124419,10.068428,11.926289,8.698091,9.177097,21.39936,21.418415,10.197087,26.764195,12.743614,17.167932,25.910523,23.613417,44.590011,47.994192,55.369253,106.073844,37.951467,23.248965,29.614931,71.499604,69.199339,19.69116,85.886078,22.761558,normal
782.559818,50.988419,61.567756,70.576109,87.012409,24.832755,42.516084,143.822757,25.428111,4.67246,35.951079,31.957835,32.465658,27.840996,26.560042,18.435866,5.66611,24.602215,19.25986,18.675243,13.200272,7.944129,7.327202,2.892577,13.69321,7.488848,4.822542,9.868709,6.875686,4.38819,4.801251,4.546505,4.520593,4.546505,4.801251,4.38819,6.875686,9.868709,4.822542,7.488848,13.69321,2.892577,7.327202,7.944129,13.200272,18.675243,19.25986,24.602215,5.66611,18.435866,26.560042,27.840996,32.465658,31.957835,35.951079,4.67246,25.428111,143.822757,42.516084,24.832755,87.012409,70.576109,61.567756,50.988419,27.40262,normal
682.701863,32.119677,98.32928,134.863416,129.832152,18.722758,42.581832,29.232116,16.239318,41.496219,21.752265,11.82225,45.371143,47.382676,14.683632,15.450824,42.518063,19.530544,5.877755,22.910622,22.174229,4.89217,7.669804,3.459014,7.549133,5.699788,5.27011,2.553389,9.729176,10.619414,2.988886,1.951728,5.636201,1.951728,2.988886,10.619414,9.729176,2.553389,5.27011,5.699788,7.549133,3.459014,7.669804,4.89217,22.174229,22.910622,5.877755,19.530544,42.518063,15.450824,14.683632,47.382676,45.371143,11.82225,21.752265,41.496219,16.239318,29.232116,42.581832,18.722758,129.832152,134.863416,98.32928,32.119677,27.587552,normal
709.015076,44.59409,119.363146,26.203325,82.817554,40.062526,27.33735,9.055064,28.134336,2.963268,43.158921,57.715221,27.093147,14.550334,39.149265,7.663073,12.449137,18.225591,14.232329,18.044187,20.616388,4.723884,8.457924,11.591226,8.247196,6.292541,7.225342,1.108585,3.643054,1.680408,0.805546,3.36656,2.871208,3.36656,0.805546,1.680408,3.643054,1.108585,7.225342,6.292541,8.247196,11.591226,8.457924,4.723884,20.616388,18.044187,14.232329,18.225591,12.449137,7.663073,39.149265,14.550334,27.093147,57.715221,43.158921,2.963268,28.134336,9.055064,27.33735,40.062526,82.817554,26.203325,119.363146,44.59409,25.47904,normal
682.333673,27.18845,18.718075,29.065502,3.161923,20.754242,29.287827,19.513322,6.936244,14.755525,10.10016,9.200605,7.811218,9.101255,6.570238,5.215733,7.678772,4.488696,3.208394,0.99122,0.613057,2.43244,2.935439,0.642032,1.85212,0.679001,1.565081,1.29275,0.604559,0.931364,1.002148,1.662849,0.889482,1.662849,1.002148,0.931364,0.604559,1.29275,1.565081,0.679001,1.85212,0.642032,2.935439,2.43244,0.613057,0.99122,3.208394,4.488696,7.678772,5.215733,6.570238,9.101255,7.811218,9.200605,10.10016,14.755525,6.936244,19.513322,29.287827,20.754242,3.161923,29.065502,18.718075,27.18845,13.648463,normal
1026.817382,263.775206,151.083081,83.290772,91.915359,33.763472,131.852356,96.605309,33.296942,23.45439,37.695974,23.819855,16.492406,10.947838,25.179546,22.780364,5.028552,27.499332,11.579167,18.958265,5.837767,0.669867,3.417232,1.517472,3.926641,1.847124,3.042812,3.97921,3.730983,0.940854,1.573172,2.841125,2.81923,2.841125,1.573172,0.940854,3.730983,3.97921,3.042812,1.847124,3.926641,1.517472,3.417232,0.669867,5.837767,18.958265,11.579167,27.499332,5.028552,22.780364,25.179546,10.947838,16.492406,23.819855,37.695974,23.45439,33.296942,96.605309,131.852356,33.763472,91.915359,83.290772,151.083081,263.775206,33.322162,normal
1053.219832,54.659543,140.643404,125.045817,10.45125,53.97283,68.940761,95.039067,18.503931,116.126203,49.111955,81.40659,31.554118,48.321742,28.400315,14.956873,18.42496,13.332183,19.265812,13.814155,15.94538,9.362197,4.556384,13.342181,3.981229,4.034584,5.242649,4.41733,2.980332,1.00031,0.867104,3.528649,0.702999,3.528649,0.867104,1.00031,2.980332,4.41733,5.242649,4.034584,3.981229,13.342181,4.556384,9.362197,15.94538,13.814155,19.265812,13.332183,18.42496,14.956873,28.400315,48.321742,31.554118,81.40659,49.111955,116.126203,18.503931,95.039067,68.940761,53.97283,10.45125,125.045817,140.643404,54.659543,32.833304,normal
896.21314,34.90739,124.524701,224.80784,127.25214,36.15229,66.310631,59.118923,68.107599,31.971284,76.495908,39.2554,19.266064,54.818552,22.331402,50.079842,7.479499,37.060349,15.182178,18.194516,12.794567,7.710789,24.984226,7.164402,26.632175,8.683085,13.938891,16.589885,6.919087,16.513075,9.037798,9.283181,9.791433,9.283181,9.037798,16.513075,6.919087,16.589885,13.938891,8.683085,26.632175,7.164402,24.984226,7.710789,12.794567,18.194516,15.182178,37.060349,7.479499,50.079842,22.331402,54.818552,19.266064,39.2554,76.495908,31.971284,68.107599,59.118923,66.310631,36.15229,127.25214,224.80784,124.524701,34.90739,35.486384,normal
1338.718708,143.697127,124.710315,13.945197,70.146701,68.420313,45.128422,51.474237,9.936378,29.049087,12.908289,27.285426,4.404287,28.881052,21.983706,29.243155,24.804526,17.342683,19.862451,8.516589,7.525174,4.406683,5.102664,0.741315,1.688412,1.843511,1.288309,1.656784,1.219403,2.798102,2.600688,1.657304,2.624082,1.657304,2.600688,2.798102,1.219403,1.656784,1.288309,1.843511,1.688412,0.741315,5.102664,4.406683,7.525174,8.516589,19.862451,17.342683,24.804526,29.243155,21.983706,28.881052,4.404287,27.285426,12.908289,29.049087,9.936378,51.474237,45.128422,68.420313,70.146701,13.945197,124.710315,143.697127,36.013605,normal
1172.440406,156.102975,84.403862,159.761328,46.880851,58.893388,47.956851,33.453835,11.344307,25.369403,18.817753,28.375638,44.10644,27.547486,35.192085,9.41266,28.358018,3.231456,18.557105,6.940128,9.659924,6.729888,7.896506,4.061549,4.854739,1.581196,4.781737,3.222569,0.887379,4.881752,2.852231,2.216704,0.085777,2.216704,2.852231,4.881752,0.887379,3.222569,4.781737,1.581196,4.854739,4.061549,7.896506,6.729888,9.659924,6.940128,18.557105,3.231456,28.358018,9.41266,35.192085,27.547486,44.10644,28.375638,18.817753,25.369403,11.344307,33.453835,47.956851,58.893388,46.880851,159.761328,84.403862,156.102975,39.697012,normal
630.182504,116.418033,94.834442,111.610162,21.90248,37.767031,28.224704,12.885169,3.509091,26.193334,22.536425,15.994034,1.293866,7.475501,18.157008,12.417039,9.683907,7.165322,8.013041,6.586223,7.691396,3.845603,7.25472,4.21227,4.398456,4.285571,1.918281,1.17956,1.581012,2.803592,2.868649,2.289065,1.172353,2.289065,2.868649,2.803592,1.581012,1.17956,1.918281,4.285571,4.398456,4.21227,7.25472,3.845603,7.691396,6.586223,8.013041,7.165322,9.683907,12.417039,18.157008,7.475501,1.293866,15.994034,22.536425,26.193334,3.509091,12.885169,28.224704,37.767031,21.90248,111.610162,94.834442,116.418033,17.173852,normal
1276.280095,237.368311,111.246086,15.099261,111.827467,61.533272,41.205379,44.874491,22.927292,7.625045,3.336694,34.445777,37.342188,25.665146,33.090801,10.424399,20.331217,17.081808,11.505681,11.092296,8.321604,2.196339,4.067883,3.042543,6.390449,4.541047,2.099728,5.099172,4.451925,2.970337,4.332648,5.161536,1.333919,5.161536,4.332648,2.970337,4.451925,5.099172,2.099728,4.541047,6.390449,3.042543,4.067883,2.196339,8.321604,11.092296,11.505681,17.081808,20.331217,10.424399,33.090801,25.665146,37.342188,34.445777,3.336694,7.625045,22.927292,44.874491,41.205379,61.533272,111.827467,15.099261,111.246086,237.368311,37.403804,normal
858.897597,131.80432,109.447292,81.110627,80.12308,25.938823,21.5873,23.072959,3.660682,6.503077,11.007397,19.307041,9.748458,15.831201,19.700512,15.958161,12.867665,9.246519,11.562006,7.502794,3.157958,7.66835,6.227518,6.118233,5.429099,4.736709,6.871516,3.572118,5.517251,1.128102,4.337288,1.353248,1.888758,1.353248,4.337288,1.128102,5.517251,3.572118,6.871516,4.736709,5.429099,6.118233,6.227518,7.66835,3.157958,7.502794,11.562006,9.246519,12.867665,15.958161,19.700512,15.831201,9.748458,19.307041,11.007397,6.503077,3.660682,23.072959,21.5873,25.938823,80.12308,81.110627,109.447292,131.80432,23.309451,normal
1222.157075,90.173332,94.935396,103.922871,111.295559,197.735306,48.187934,67.412682,64.284594,26.383067,14.753558,10.71104,5.529913,14.515567,12.88168,13.431101,4.842205,17.413775,16.230211,4.784257,9.090452,7.682163,4.548547,4.287694,2.726444,3.308911,5.08986,0.949916,2.431199,1.557354,1.349097,1.926526,0.926327,1.926526,1.349097,1.557354,2.431199,0.949916,5.08986,3.308911,2.726444,4.287694,4.548547,7.682163,9.090452,4.784257,16.230211,17.413775,4.842205,13.431101,12.88168,14.515567,5.529913,10.71104,14.753558,26.383067,64.284594,67.412682,48.187934,197.735306,111.295559,103.922871,94.935396,90.173332,38.164035,normal
1320.044586,225.297099,133.251425,36.304828,109.081157,48.793392,52.777514,40.776389,15.878393,28.609047,25.67698,16.954369,37.3927,14.842987,34.0577,8.600664,12.669362,15.20587,8.1467,10.557953,7.464177,5.617096,1.236193,1.082862,3.399099,3.683871,1.194392,4.557421,2.749205,2.55374,3.264643,0.485554,3.998212,0.485554,3.264643,2.55374,2.749205,4.557421,1.194392,3.683871,3.399099,1.082862,1.236193,5.617096,7.464177,10.557953,8.1467,15.20587,12.669362,8.600664,34.0577,14.842987,37.3927,16.954369,25.67698,28.609047,15.878393,40.776389,52.777514,48.793392,109.081157,36.304828,133.251425,225.297099,33.852712,normal
779.455485,53.989213,60.187151,29.259652,209.768602,55.622568,16.912734,13.622926,47.555709,24.701878,26.595892,10.069875,21.289558,34.50626,48.209367,11.190069,28.510593,3.765916,5.958957,3.633202,6.47555,8.695519,3.477598,9.6499,3.818902,5.061842,4.925425,7.160183,6.398127,4.954076,5.182875,6.0639,4.848551,6.0639,5.182875,4.954076,6.398127,7.160183,4.925425,5.061842,3.818902,9.6499,3.477598,8.695519,6.47555,3.633202,5.958957,3.765916,28.510593,11.190069,48.209367,34.50626,21.289558,10.069875,26.595892,24.701878,47.555709,13.622926,16.912734,55.622568,209.768602,29.259652,60.187151,53.989213,22.460231,normal
1163.19736,76.764494,134.240297,55.456346,222.371724,96.644728,70.766153,70.669869,57.985361,65.411371,62.31614,51.687849,55.866511,34.680385,38.860245,17.724689,17.407496,9.908259,9.156731,5.340097,13.664803,6.681381,11.159771,7.156487,4.140994,2.126169,1.938242,2.980847,4.89344,3.371699,5.910857,3.959284,6.470201,3.959284,5.910857,3.371699,4.89344,2.980847,1.938242,2.126169,4.140994,7.156487,11.159771,6.681381,13.664803,5.340097,9.156731,9.908259,17.407496,17.724689,38.860245,34.680385,55.866511,51.687849,62.31614,65.411371,57.985361,70.669869,70.766153,96.644728,222.371724,55.456346,134.240297,76.764494,42.210166,normal
1052.870505,17.892655,31.326689,57.073801,74.015874,40.997637,25.985234,14.983791,18.101467,9.156969,13.207118,20.383369,29.427257,40.681977,13.997112,23.287075,8.316206,12.272209,8.416921,7.756917,8.27801,6.666739,6.786708,8.720035,5.465372,1.908257,0.92813,4.48527,1.639828,1.229603,1.675925,2.090587,0.75997,2.090587,1.675925,1.229603,1.639828,4.48527,0.92813,1.908257,5.465372,8.720035,6.786708,6.666739,8.27801,7.756917,8.416921,12.272209,8.316206,23.287075,13.997112,40.681977,29.427257,20.383369,13.207118,9.156969,18.101467,14.983791,25.985234,40.997637,74.015874,57.073801,31.326689,17.892655,24.224478,normal
1152.784178,77.748171,64.2574,31.590523,42.23602,35.246428,55.183268,33.797979,47.373553,50.207178,18.838681,43.301309,28.039369,25.059604,30.14174,27.898703,20.481836,30.128246,13.704905,18.673862,18.139123,7.864508,14.351002,10.986872,5.273597,10.986177,7.992435,6.748896,7.869146,6.308716,7.163853,6.473908,5.997245,6.473908,7.163853,6.308716,7.869146,6.748896,7.992435,10.986177,5.273597,10.986872,14.351002,7.864508,18.139123,18.673862,13.704905,30.128246,20.481836,27.898703,30.14174,25.059604,28.039369,43.301309,18.838681,50.207178,47.373553,33.797979,55.183268,35.246428,42.23602,31.590523,64.2574,77.748171,29.361828,normal
907.437198,65.296781,71.929459,11.10135,45.889557,30.921164,30.000344,25.264816,7.803697,31.48253,28.725466,20.348839,18.126351,36.395713,39.797863,22.554236,9.8783,8.128284,23.405677,25.791648,18.763921,7.344408,12.525959,16.594876,14.137476,8.041998,1.67927,8.166642,9.027729,10.327003,6.466725,4.53975,4.21957,4.53975,6.466725,10.327003,9.027729,8.166642,1.67927,8.041998,14.137476,16.594876,12.525959,7.344408,18.763921,25.791648,23.405677,8.128284,9.8783,22.554236,39.797863,36.395713,18.126351,20.348839,28.725466,31.48253,7.803697,25.264816,30.000344,30.921164,45.889557,11.10135,71.929459,65.296781,24.740436,normal
849.906719,357.841066,76.373839,124.262956,41.296608,52.184237,62.457509,31.045937,44.886281,31.049558,30.690859,29.869427,11.645331,10.421514,7.948477,19.97449,9.792226,10.760399,10.881804,3.299626,18.627382,1.258686,8.538884,4.078192,1.600205,4.546596,2.545925,6.951256,2.478596,0.892384,4.767188,1.578487,8.418536,1.578487,4.767188,0.892384,2.478596,6.951256,2.545925,4.546596,1.600205,4.078192,8.538884,1.258686,18.627382,3.299626,10.881804,10.760399,9.792226,19.97449,7.948477,10.421514,11.645331,29.869427,30.690859,31.049558,44.886281,31.045937,62.457509,52.184237,41.296608,124.262956,76.373839,357.841066,30.769919,normal
856.932314,29.985671,42.411974,37.051204,135.514808,43.27066,25.791796,7.406211,43.102895,38.855855,24.590194,7.966092,30.033455,21.127388,9.721245,33.604774,15.808636,19.761123,6.489184,9.739083,7.41948,5.587719,4.660253,12.605974,5.233925,5.109461,5.596624,5.119383,6.163581,4.914072,5.572318,5.445593,3.918285,5.445593,5.572318,4.914072,6.163581,5.119383,5.596624,5.109461,5.233925,12.605974,4.660253,5.587719,7.41948,9.739083,6.489184,19.761123,15.808636,33.604774,9.721245,21.127388,30.033455,7.966092,24.590194,38.855855,43.102895,7.406211,25.791796,43.27066,135.514808,37.051204,42.411974,29.985671,22.914393,normal
627.840744,93.860098,43.076947,103.097454,42.55552,28.280507,44.578614,35.419419,34.098025,5.611069,48.596883,11.401718,6.784276,16.577754,12.642318,17.078463,11.348579,4.330978,6.600463,1.359384,8.57654,6.670678,5.593075,9.243689,8.452184,3.633891,3.439736,3.987558,7.376404,2.542086,3.889887,3.720715,7.405581,3.720715,3.889887,2.542086,7.376404,3.987558,3.439736,3.633891,8.452184,9.243689,5.593075,6.670678,8.57654,1.359384,6.600463,4.330978,11.348579,17.078463,12.642318,16.577754,6.784276,11.401718,48.596883,5.611069,34.098025,35.419419,44.578614,28.280507,42.55552,103.097454,43.076947,93.860098,16.761889,normal
596.076199,47.389576,16.400292,19.65851,6.870912,53.304824,30.047165,30.413129,6.343123,14.671446,9.018667,19.764287,12.380405,7.496165,6.841209,3.505954,14.895352,12.421111,8.342976,2.530417,7.323935,3.042609,5.884566,5.140024,7.414159,5.959286,4.24134,3.121257,5.455361,5.500216,4.686581,4.602714,4.185791,4.602714,4.686581,5.500216,5.455361,3.121257,4.24134,5.959286,7.414159,5.140024,5.884566,3.042609,7.323935,2.530417,8.342976,12.421111,14.895352,3.505954,6.841209,7.496165,12.380405,19.764287,9.018667,14.671446,6.343123,30.413129,30.047165,53.304824,6.870912,19.65851,16.400292,47.389576,15.910559,normal
819.289703,167.247963,82.082732,51.454158,88.094048,38.662638,19.894192,54.719826,8.965587,30.182804,30.26936,19.029629,15.04497,9.097745,6.047215,7.109161,12.89636,11.424486,9.611058,5.139237,8.131069,8.035794,8.641078,6.805646,7.109068,1.466738,1.36428,1.677393,2.19221,1.475596,2.880252,3.157548,0.087581,3.157548,2.880252,1.475596,2.19221,1.677393,1.36428,1.466738,7.109068,6.805646,8.641078,8.035794,8.131069,5.139237,9.611058,11.424486,12.89636,7.109161,6.047215,9.097745,15.04497,19.029629,30.26936,30.182804,8.965587,54.719826,19.894192,38.662638,88.094048,51.454158,82.082732,167.247963,22.555392,normal
727.516397,180.029497,79.710375,59.328798,114.955317,82.720295,53.195129,40.687926,68.978854,37.94653,32.453135,25.820521,8.52259,21.47945,7.933631,16.882633,8.49931,2.102257,1.924043,2.749596,5.274129,6.891138,4.897924,4.208227,5.301121,4.299925,4.321053,5.746555,5.128368,5.103988,4.727476,4.76708,3.673833,4.76708,4.727476,5.103988,5.128368,5.746555,4.321053,4.299925,5.301121,4.208227,4.897924,6.891138,5.274129,2.749596,1.924043,2.102257,8.49931,16.882633,7.933631,21.47945,8.52259,25.820521,32.453135,37.94653,68.978854,40.687926,53.195129,82.720295,114.955317,59.328798,79.710375,180.029497,33.062171,normal
575.781543,56.465548,53.80392,45.105904,66.694911,46.416173,3.730254,18.633533,13.303733,10.959165,15.275322,8.713298,8.620024,12.948613,15.396489,11.64871,14.533709,4.917743,1.516296,4.51056,2.616113,3.639533,2.014209,3.255351,1.233729,3.721258,1.201146,1.272351,2.802218,2.386974,3.39329,3.027251,1.892351,3.027251,3.39329,2.386974,2.802218,1.272351,1.201146,3.721258,1.233729,3.255351,2.014209,3.639533,2.616113,4.51056,1.516296,4.917743,14.533709,11.64871,15.396489,12.948613,8.620024,8.713298,15.275322,10.959165,13.303733,18.633533,3.730254,46.416173,66.694911,45.105904,53.80392,56.465548,15.013757,normal
634.091011,21.566951,67.849682,78.617458,36.105271,68.405094,54.843785,44.301876,11.794529,12.978433,13.518122,31.261538,23.200513,13.447673,12.882789,9.587936,13.559123,9.159361,9.623947,6.167706,5.881798,6.473691,6.554594,4.826769,1.384794,3.632601,2.328843,1.49071,1.310062,3.348034,0.954254,2.375106,4.017595,2.375106,0.954254,3.348034,1.310062,1.49071,2.328843,3.632601,1.384794,4.826769,6.554594,6.473691,5.881798,6.167706,9.623947,9.159361,13.559123,9.587936,12.882789,13.447673,23.200513,31.261538,13.518122,12.978433,11.794529,44.301876,54.843785,68.405094,36.105271,78.617458,67.849682,21.566951,18.212192,normal
402.267439,80.514581,18.82488,26.27529,2.26566,19.248168,38.730711,10.580195,16.84226,3.85456,6.313569,5.989652,5.052102,3.202826,3.145416,9.500925,4.644737,9.321574,8.136112,10.879232,7.632536,7.022807,6.932353,3.058387,6.561778,4.264861,4.621332,4.012011,3.044123,4.923947,3.307097,2.088639,0.893707,2.088639,3.307097,4.923947,3.044123,4.012011,4.621332,4.264861,6.561778,3.058387,6.932353,7.022807,7.632536,10.879232,8.136112,9.321574,4.644737,9.500925,3.145416,3.202826,5.052102,5.989652,6.313569,3.85456,16.84226,10.580195,38.730711,19.248168,2.26566,26.27529,18.82488,80.514581,11.109657,normal
1044.980513,91.768518,112.634105,86.189854,91.128314,23.803607,37.807642,24.84691,52.598318,66.468025,22.554887,45.024534,6.545194,34.0253,24.251281,8.580788,26.454973,6.038063,20.578751,9.009584,16.174284,9.909523,12.207621,7.641836,8.164216,10.026677,6.508723,10.72195,8.406058,9.63085,11.46949,6.969178,13.773719,6.969178,11.46949,9.63085,8.406058,10.72195,6.508723,10.026677,8.164216,7.641836,12.207621,9.909523,16.174284,9.009584,20.578751,6.038063,26.454973,8.580788,24.251281,34.0253,6.545194,45.024534,22.554887,66.468025,52.598318,24.84691,37.807642,23.803607,91.128314,86.189854,112.634105,91.768518,38.442429,normal
962.100436,79.955936,165.107099,65.754488,158.828346,69.214898,62.086287,56.114382,29.70236,25.179504,22.006069,22.671334,13.618262,16.247544,6.668758,4.684182,5.619289,15.885875,8.598292,14.308749,9.951643,9.198967,6.469244,1.380549,2.517964,1.568334,3.43903,3.5589,3.340902,3.623305,3.002597,2.904094,2.449306,2.904094,3.002597,3.623305,3.340902,3.5589,3.43903,1.568334,2.517964,1.380549,6.469244,9.198967,9.951643,14.308749,8.598292,15.885875,5.619289,4.684182,6.668758,16.247544,13.618262,22.671334,22.006069,25.179504,29.70236,56.114382,62.086287,69.214898,158.828346,65.754488,165.107099,79.955936,34.238998,normal
396.488651,45.978286,20.597594,37.967562,53.695889,82.070576,17.946081,40.064688,30.193864,29.760608,38.377338,21.52658,21.420877,16.849367,32.989562,1.097849,17.168098,18.555235,22.363887,9.873943,12.675173,17.637748,3.50615,14.087888,4.661417,19.139783,7.226659,15.909349,7.034472,12.706199,5.827032,15.327447,2.311888,15.327447,5.827032,12.706199,7.034472,15.909349,7.226659,19.139783,4.661417,14.087888,3.50615,17.637748,12.675173,9.873943,22.363887,18.555235,17.168098,1.097849,32.989562,16.849367,21.420877,21.52658,38.377338,29.760608,30.193864,40.064688,17.946081,82.070576,53.695889,37.967562,20.597594,45.978286,18.668072,normal
153.699103,15.810243,3.518917,12.464248,8.071219,4.661593,16.229174,15.316362,9.22552,9.718438,7.134205,2.828926,4.699332,7.560075,3.129411,8.872026,1.43823,0.956768,3.89154,2.507745,6.392545,3.303247,4.940672,0.605157,5.244467,3.849628,2.138114,1.305741,1.572283,1.225648,1.7571,1.724738,2.214661,1.724738,1.7571,1.225648,1.572283,1.305741,2.138114,3.849628,5.244467,0.605157,4.940672,3.303247,6.392545,2.507745,3.89154,0.956768,1.43823,8.872026,3.129411,7.560075,4.699332,2.828926,7.134205,9.718438,9.22552,15.316362,16.229174,4.661593,8.071219,12.464248,3.518917,15.810243,4.432146,normal
3275.364891,116.591115,153.58682,100.947892,92.002118,118.719077,60.976363,150.241998,32.512673,87.257334,104.082056,28.808314,42.80273,118.791485,37.449745,77.27354,57.673094,39.567214,22.893084,28.819604,35.291347,25.75613,20.367425,26.807359,13.874197,41.796203,20.661629,2.568658,28.421387,18.033692,19.015547,32.908915,0.646033,32.908915,19.015547,18.033692,28.421387,2.568658,20.661629,41.796203,13.874197,26.807359,20.367425,25.75613,35.291347,28.819604,22.893084,39.567214,57.673094,77.27354,37.449745,118.791485,42.80273,28.808314,104.082056,87.257334,32.512673,150.241998,60.976363,118.719077,92.002118,100.947892,153.58682,116.591115,65.698133,hazard
3449.157891,57.452396,92.646212,47.661142,27.610394,55.096796,73.425709,73.759741,61.418307,43.536425,95.37947,118.437346,62.391968,107.74475,11.720641,67.306297,59.155435,17.738363,29.20728,26.076097,42.866082,10.815205,25.047835,26.103135,8.142304,18.721035,27.099149,11.311661,4.634727,10.467996,3.832691,26.001487,6.377217,26.001487,3.832691,10.467996,4.634727,11.311661,27.099149,18.721035,8.142304,26.103135,25.047835,10.815205,42.866082,26.076097,29.20728,17.738363,59.155435,67.306297,11.720641,107.74475,62.391968,118.437346,95.37947,43.536425,61.418307,73.759741,73.425709,55.096796,27.610394,47.661142,92.646212,57.452396,67.564209,hazard
3288.045483,199.539087,147.810366,266.290992,135.870983,18.383145,133.259624,118.347278,113.784713,94.657317,50.730372,71.825266,81.393127,42.470245,82.889956,82.084949,50.845497,24.918069,18.730763,21.674576,25.916097,22.51061,29.339634,20.518722,32.191359,22.730678,19.86562,60.55819,32.536558,36.901116,10.351779,31.838111,3.977756,31.838111,10.351779,36.901116,32.536558,60.55819,19.86562,22.730678,32.191359,20.518722,29.339634,22.51061,25.916097,21.674576,18.730763,24.918069,50.845497,82.084949,82.889956,42.470245,81.393127,71.825266,50.730372,94.657317,113.784713,118.347278,133.259624,18.383145,135.870983,266.290992,147.810366,199.539087,72.646048,hazard
3075.041471,45.101135,280.361631,58.83971,85.635169,78.243579,114.774582,160.248473,77.991227,98.775126,19.62119,69.44504,78.535309,68.676991,17.585932,118.714428,52.705517,8.141847,59.060662,30.974907,67.06238,36.513231,45.441962,6.871811,23.291811,19.744939,19.071139,16.198503,57.337198,35.498363,10.653134,20.811128,38.139529,20.811128,10.653134,35.498363,57.337198,16.198503,19.071139,19.744939,23.291811,6.871811,45.441962,36.513231,67.06238,30.974907,59.060662,8.141847,52.705517,118.714428,17.585932,68.676991,78.535309,69.44504,19.62119,98.775126,77.991227,160.248473,114.774582,78.243579,85.635169,58.83971,280.361631,45.101135,70.602631,hazard
3347.443608,60.137914,27.874653,122.898817,158.030156,73.919015,87.803854,35.169544,182.444573,83.050121,51.619493,87.470953,81.791676,58.083304,58.896604,46.99109,80.767222,32.839743,42.152895,14.848775,10.569375,30.781065,57.997397,17.039119,19.824882,25.768881,25.705179,10.66924,28.353776,29.948417,42.575942,9.602662,17.731936,9.602662,42.575942,29.948417,28.353776,10.66924,25.705179,25.768881,19.824882,17.039119,57.997397,30.781065,10.569375,14.848775,42.152895,32.839743,80.767222,46.99109,58.896604,58.083304,81.791676,87.470953,51.619493,83.050121,182.444573,35.169544,87.803854,73.919015,158.030156,122.898817,27.874653,60.137914,69.771264,hazard
3287.704027,122.421876,110.299075,120.322819,105.036877,176.084219,150.185201,50.561301,124.617412,68.572166,59.782714,157.177855,49.216843,29.197429,32.526223,45.567128,68.71526,95.214774,107.687009,34.527638,58.858161,66.884814,38.054601,27.204786,9.244215,13.017679,36.160335,24.208805,21.60922,44.332458,27.259938,27.478476,6.912323,27.478476,27.259938,44.332458,21.60922,24.208805,36.160335,13.017679,9.244215,27.204786,38.054601,66.884814,58.858161,34.527638,107.687009,95.214774,68.71526,45.567128,32.526223,29.197429,49.216843,157.177855,59.782714,68.572166,124.617412,50.561301,150.185201,176.084219,105.036877,120.322819,110.299075,122.421876,71.358614,hazard
2966.162774,206.687287,64.324483,123.624365,191.136862,134.373654,75.053233,172.565447,142.833417,233.591632,208.631174,14.258143,117.615555,95.81391,121.463367,38.352102,56.075562,47.267477,16.758188,17.579603,20.206199,25.276955,11.148624,44.021998,38.279862,28.718402,47.635848,24.010004,10.043799,14.31063,20.555487,17.619948,11.909592,17.619948,20.555487,14.31063,10.043799,24.010004,47.635848,28.718402,38.279862,44.021998,11.148624,25.276955,20.206199,17.579603,16.758188,47.267477,56.075562,38.352102,121.463367,95.81391,117.615555,14.258143,208.631174,233.591632,142.833417,172.565447,75.053233,134.373654,191.136862,123.624365,64.324483,206.687287,64.44016,hazard
3213.057549,121.406802,143.62866,108.233157,35.294988,93.270667,80.745417,131.553084,170.730829,55.294872,38.880487,116.99076,149.155636,54.799093,63.039046,41.716693,24.218918,17.952978,36.631857,20.938563,30.09195,14.597316,53.187974,44.850886,9.91547,26.077373,16.215311,6.706043,10.243688,5.50415,29.770857,20.224095,10.160218,20.224095,29.770857,5.50415,10.243688,6.706043,16.215311,26.077373,9.91547,44.850886,53.187974,14.597316,30.09195,20.938563,36.631857,17.952978,24.218918,41.716693,63.039046,54.799093,149.155636,116.99076,38.880487,55.294872,170.730829,131.553084,80.745417,93.270667,35.294988,108.233157,143.62866,121.406802,69.808254,hazard
3183.457513,167.675524,3.536046,149.562782,54.479438,231.112521,42.382659,119.496947,67.06038,135.476838,158.576443,83.476176,137.184463,86.527686,41.421284,99.798252,55.980402,56.649593,98.080031,15.634242,47.314018,16.570339,27.061791,41.753034,32.502945,35.965405,57.194606,30.928508,6.5062,25.278035,11.438868,41.307685,19.019442,41.307685,11.438868,25.278035,6.5062,30.928508,57.194606,35.965405,32.502945,41.753034,27.061791,16.570339,47.314018,15.634242,98.080031,56.649593,55.980402,99.798252,41.421284,86.527686,137.184463,83.476176,158.576443,135.476838,67.06038,119.496947,42.382659,231.112521,54.479438,149.562782,3.536046,167.675524,66.526523,hazard
1393.61643,219.415005,391.884182,186.973074,163.662862,125.604313,144.70968,117.114295,60.148635,153.911314,112.856915,41.596163,71.007765,88.785726,80.537812,70.039073,29.946902,46.114081,64.01763,37.448324,85.596369,30.85284,32.873434,37.40674,18.561056,22.567697,8.021924,12.313623,13.113475,19.713267,18.457824,28.503771,14.98902,28.503771,18.457824,19.713267,13.113475,12.313623,8.021924,22.567697,18.561056,37.40674,32.873434,30.85284,85.596369,37.448324,64.01763,46.114081,29.946902,70.039073,80.537812,88.785726,71.007765,41.596163,112.856915,153.911314,60.148635,117.114295,144.70968,125.604313,163.662862,186.973074,391.884182,219.415005,64.286252,hazard
